{
  "apk": {
    "versionCode": 28,
    "versionName": "1.2.8",
    "apkUrl": "https://gitlab.com/bdvideo/bd/-/raw/main/bdvideo.apk"
  },
  "siteList": [
    {
      "siteName": "红牛",
      "url": "https://www.hongniuzy2.com/"
    }
  ],
  "siteUrl": "",
  "shareContent": ""
}